…
    ##    Min. 1st Qu.  Median    Mean 3rd Qu.    Max. 
    ## 0.05263 0.08637 0.09587 0.09636 0.10530 0.16340

``` r
smooth_level <- cancer_sample %>%
                mutate(smooth_level = case_when(smoothness_mean < 0.08637 ~ "low",
                                                smoothness_mean < 0.09587 ~ "fair",
                                                smoothness_mean < 0.10530 ~ "good",
                                                TRUE ~ "very high")) 

print(smooth_level[, c("smoothness_mean", "smooth_level")])
```

    ## # A tibble: 569 × 2
    ##    smoothness_mean smooth_level
    ##              <dbl> <chr>       
    ##  1          0.118  very high   
    ##  2          0.0847 low         
    ##  3          0.110  very high   
    ##  4          0.142  very high   
    ##  5          0.100  good        
    ##  6          0.128  very high   
    ##  7          0.0946 fair        
    ##  8          0.119  very high   
    ##  9          0.127  very high   
    ## 10          0.119  very high   
    ## # ℹ 559 more rows
…
    ##    Min. 1st Qu.  Median    Mean 3rd Qu.    Max. 
    ##  0.1060  0.1619  0.1792  0.1812  0.1957  0.3040

``` r
symmetry_level <- cancer_sample %>%
                mutate(symmetry_level = case_when(symmetry_mean < 0.1619 ~ "low",
                                                symmetry_mean < 0.1792 ~ "moderate",
                                                symmetry_mean < 0.1957 ~ "good",
                                                TRUE ~ "very good")) 

print(symmetry_level[, c("symmetry_mean", "symmetry_level")])
```

    ## # A tibble: 569 × 2
    ##    symmetry_mean symmetry_level
    ##            <dbl> <chr>         
    ##  1         0.242 very good     
    ##  2         0.181 good          
    ##  3         0.207 very good     
    ##  4         0.260 very good     
    ##  5         0.181 good          
    ##  6         0.209 very good     
    ##  7         0.179 good          
    ##  8         0.220 very good     
    ##  9         0.235 very good     
    ## 10         0.203 very good     
    ## # ℹ 559 more rows
…
As we can see now in the table above, when we untidy the data, the
number of rows increases and the multiple rows describe one
sample/observation instead of one row for each sample/observation.

#### Now we tidy the data again:

``` r
cancer_tidy <-cancer_untidy %>% 
    pivot_wider(names_from = "Measured Variables",
                values_from = "Values")
print(cancer_tidy)
```

    ## # A tibble: 569 × 32
    ##          ID diagnosis radius_mean texture_mean perimeter_mean area_mean
    ##       <dbl> <chr>           <dbl>        <dbl>          <dbl>     <dbl>
    ##  1   842302 M                18.0         10.4          123.      1001 
    ##  2   842517 M                20.6         17.8          133.      1326 
    ##  3 84300903 M                19.7         21.2          130       1203 
    ##  4 84348301 M                11.4         20.4           77.6      386.
    ##  5 84358402 M                20.3         14.3          135.      1297 
    ##  6   843786 M                12.4         15.7           82.6      477.
    ##  7   844359 M                18.2         20.0          120.      1040 
    ##  8 84458202 M                13.7         20.8           90.2      578.
    ##  9   844981 M                13           21.8           87.5      520.
    ## 10 84501001 M                12.5         24.0           84.0      476.
    ## # ℹ 559 more rows
    ## # ℹ 26 more variables: smoothness_mean <dbl>, compactness_mean <dbl>,
    ## #   concavity_mean <dbl>, concave_points_mean <dbl>, symmetry_mean <dbl>,
    ## #   fractal_dimension_mean <dbl>, radius_se <dbl>, texture_se <dbl>,
    ## #   perimeter_se <dbl>, area_se <dbl>, smoothness_se <dbl>,
    ## #   compactness_se <dbl>, concavity_se <dbl>, concave_points_se <dbl>,
    ## #   symmetry_se <dbl>, fractal_dimension_se <dbl>, radius_worst <dbl>, …
…
