…
I choose this exercise also to answer the question if malignant cancer
samples are likely to have larger radius than the benign ones. Based on
this graph, we can see that there is evidence to believe this
hypothesis.

## Exercise 4: Make a new tibble with a subset of your data, with variables and observations that you are interested in exploring.

``` r
cancer_benign <- cancer_sample %>% 
  filter(diagnosis == "B") # only pick samples with benign diagnosis
print(cancer_benign)
```

    ## # A tibble: 357 × 32
    ##          ID diagnosis radius_mean texture_mean perimeter_mean area_mean
    ##       <dbl> <chr>           <dbl>        <dbl>          <dbl>     <dbl>
    ##  1  8510426 B               13.5          14.4           87.5      566.
    ##  2  8510653 B               13.1          15.7           85.6      520 
    ##  3  8510824 B                9.50         12.4           60.3      274.
    ##  4   854941 B               13.0          18.4           82.6      524.
    ##  5 85713702 B                8.20         16.8           51.7      202.
    ##  6   857155 B               12.0          14.6           78.0      449.
    ##  7   857156 B               13.5          22.3           86.9      561 
    ##  8   857343 B               11.8          21.6           74.7      428.
    ##  9   857373 B               13.6          16.3           87.2      572.
    ## 10   857374 B               11.9          18.2           75.7      438.
    ## # ℹ 347 more rows
    ## # ℹ 26 more variables: smoothness_mean <dbl>, compactness_mean <dbl>,
    ## #   concavity_mean <dbl>, concave_points_mean <dbl>, symmetry_mean <dbl>,
    ## #   fractal_dimension_mean <dbl>, radius_se <dbl>, texture_se <dbl>,
    ## #   perimeter_se <dbl>, area_se <dbl>, smoothness_se <dbl>,
    ## #   compactness_se <dbl>, concavity_se <dbl>, concave_points_se <dbl>,
    ## #   symmetry_se <dbl>, fractal_dimension_se <dbl>, radius_worst <dbl>, …

``` r
cancer_malignant <- cancer_sample %>% 
  filter(diagnosis == "M") # only pick samples with malignant diagnosis
  
print(cancer_malignant)
```

    ## # A tibble: 212 × 32
    ##          ID diagnosis radius_mean texture_mean perimeter_mean area_mean
    ##       <dbl> <chr>           <dbl>        <dbl>          <dbl>     <dbl>
    ##  1   842302 M                18.0         10.4          123.      1001 
    ##  2   842517 M                20.6         17.8          133.      1326 
    ##  3 84300903 M                19.7         21.2          130       1203 
    ##  4 84348301 M                11.4         20.4           77.6      386.
    ##  5 84358402 M                20.3         14.3          135.      1297 
    ##  6   843786 M                12.4         15.7           82.6      477.
    ##  7   844359 M                18.2         20.0          120.      1040 
    ##  8 84458202 M                13.7         20.8           90.2      578.
    ##  9   844981 M                13           21.8           87.5      520.
    ## 10 84501001 M                12.5         24.0           84.0      476.
    ## # ℹ 202 more rows
    ## # ℹ 26 more variables: smoothness_mean <dbl>, compactness_mean <dbl>,
    ## #   concavity_mean <dbl>, concave_points_mean <dbl>, symmetry_mean <dbl>,
    ## #   fractal_dimension_mean <dbl>, radius_se <dbl>, texture_se <dbl>,
    ## #   perimeter_se <dbl>, area_se <dbl>, smoothness_se <dbl>,
    ## #   compactness_se <dbl>, concavity_se <dbl>, concave_points_se <dbl>,
    ## #   symmetry_se <dbl>, fractal_dimension_se <dbl>, radius_worst <dbl>, …
…
